…
;; Select employees with salary > 70000, grouped by department
(select {
  avg_salary: (avg salary)
  headcount: (count name)
  from: employees
  where: (> salary 70000)
  by: dept})
┌──────┬────────────┬───────────┐
│ dept │ avg_salary │ headcount │
├──────┼────────────┼───────────┤
│ IT   │ 77333.33   │ 3         │
├──────┴────────────┴───────────┤
│ 1 rows (1 shown) 3 columns    │
└───────────────────────────────┘
```
…
