# :material-swap-horizontal: Upsert Query

The `upsert` function updates existing rows or inserts new ones in a [:material-table: Table](../data-types/table.md) based on key column(s). If a row with the same key exists, it is **updated**. Otherwise, a new row is **inserted**.

```clj
(set employees (table [id name age] (list [1 2] ['Alice 'Bob] [25 30])))

;; Upsert: id=2 exists, so it's updated; id=3 doesn't exist, so it's inserted
(set employees (upsert employees 1 (list [2 3] ['Bob-updated 'Charlie] [30 35])))

(select {id: id name: name age: age from: employees})
┌────┬─────────────┬─────┐
│ id │ name        │ age │
├────┼─────────────┼─────┤
│ 1  │ Alice       │ 25  │
│ 2  │ Bob-updated │ 30  │
│ 3  │ Charlie     │ 35  │
├────┴─────────────┴─────┤
│ 3 rows (3 shown)       │
└────────────────────────┘
```
…
