# Insert `insert`

Adds new rows to a table.

```clj
(set t (table [name age] (list (list "Alice" "Bob") [25 30])))
┌───────┬──────────────────────────────┐
│ name  │ age                          │
├───────┼──────────────────────────────┤
│ Alice │ 25                           │
│ Bob   │ 30                           │
├───────┴──────────────────────────────┤
│ 2 rows (2 shown) 2 columns (2 shown) │
└──────────────────────────────────────┘
…
