…
```clj
;; Create table
(set t (table [name age] (list (list "Alice" "Bob" "Charlie") [25 30 35])))
┌─────────┬─────┐
│ name    │ age │
├─────────┼─────┤
│ Alice   │ 25  │
│ Bob     │ 30  │
│ Charlie │ 35  │
└─────────┴─────┘

;; Update all rows - multiply age by 2
(set t (update {age: (* age 2) from: t}))
┌─────────┬────────────────────────────┐
│ name    │ age                        │
├─────────┼────────────────────────────┤
│ Alice   │ 50                         │
│ Bob     │ 60                         │
│ Charlie │ 70                         │
├─────────┴────────────────────────────┤
│ 3 rows (3 shown) 2 columns (2 shown) │
└──────────────────────────────────────┘

;; Update with expression referencing column
(set t (table [x y] (list [1 2 3] [10 20 30])))
┌────┬──────────────────────────────────┐
│ x  │ y                                │
├────┼──────────────────────────────────┤
│ 1  │ 10                               │
│ 2  │ 20                               │
│ 3  │ 30                               │
├────┴──────────────────────────────────┤
│ 3 rows (3 shown) 2 columns (2 shown)  │
└───────────────────────────────────────┘
(set t (update {y: (+ y x) from: t}))
┌────┬──────────────────────────────────┐
│ x  │ y                                │
├────┼──────────────────────────────────┤
│ 1  │ 11                               │
│ 2  │ 22                               │
│ 3  │ 33                               │
├────┴──────────────────────────────────┤
│ 3 rows (3 shown) 2 columns (2 shown)  │
└───────────────────────────────────────┘
…
