…
(select {
  avg_salary: (avg salary) 
  headcount: (count name) 
  earliest_hire: (min hire_date) 
  from: employees 
  by: dept})
┌──────┬────────────┬───────────┬───────────────┐
│ dept │ avg_salary │ headcount │ earliest_hire │
├──────┼────────────┼───────────┼───────────────┤
│ IT   │ 80000.00   │ 2         │ 2019.11.30    │
│ HR   │ 65000.00   │ 1         │ 2020.03.20    │
├──────┴────────────┴───────────┴───────────────┤
│ 2 rows (2 shown) 4 columns (4 shown)          │
└───────────────────────────────────────────────┘
```
…
