…
!!! note ""
    - `msys` - System memory used (in bytes)
    - `heap` - Total heap memory (in bytes)
    - `free` - Free heap memory (in bytes)
    - `syms` - Number of symbols in the symbol table

### :material-information: Meta

Returns metadata about a [:material-table: Table](../data-types/table.md), including column names, types, memory models, and attributes.

```clj
(set t (table [name age] (list (list "Alice" "Bob") [25 30])))
(meta t)
┌──────┬──────┬──────┬─────────────────┐
│ name │ type │ mmod │ attrs           │
├──────┼──────┼──────┼─────────────────┤
│ name │ List │ 255  │ 0               │
│ age  │ I64  │ 255  │ 0               │
├──────┴──────┴──────┴─────────────────┤
│ 2 rows (2 shown) 4 columns (4 shown) │
└──────────────────────────────────────┘
```
…
